module gitlab.com/andtoeoks/go-licenses

go 1.13

require (
	github.com/golang/glog v0.0.0-20160126235308-23def4e6c14b
	github.com/google/go-cmp v0.3.1
	github.com/google/licenseclassifier v0.0.0-20190926221455-842c0d70d702
	github.com/otiai10/copy v1.2.0
	github.com/spf13/cobra v0.0.5
	github.com/spf13/pflag v1.0.5 // indirect
	golang.org/x/crypto v0.0.0-20191117063200-497ca9f6d64f // indirect
	golang.org/x/net v0.0.0-20191119073136-fc4aabc6c914 // indirect
	golang.org/x/sys v0.0.0-20191119060738-e882bf8e40c2 // indirect
	golang.org/x/tools v0.0.0-20191118222007-07fc4c7f2b98
	gopkg.in/src-d/go-git.v4 v4.13.1
)
